\relax 
\@writefile{toc}{\contentsline {section}{\numberline {1}Wst\IeC {\k e}p}{1}\protected@file@percent }
\@writefile{toc}{\contentsline {subsection}{\numberline {1.1}Cel \IeC {\'c}wiczenia}{1}\protected@file@percent }
\@writefile{toc}{\contentsline {subsection}{\numberline {1.2}Pary punkt\IeC {\'o}w kluczowych}{1}\protected@file@percent }
\newlabel{pairs}{{1}{1}}
\@writefile{toc}{\contentsline {subsection}{\numberline {1.3}Analiza sp\IeC {\'o}jno\IeC {\'s}ci par punkt\IeC {\'o}w kluczowych}{1}\protected@file@percent }
\newlabel{coord-dist}{{2}{1}}
\@writefile{toc}{\contentsline {subsection}{\numberline {1.4}Modele przekszta\IeC {\l }ce\IeC {\'n} obraz\IeC {\'o}w}{2}\protected@file@percent }
\newlabel{affine}{{3}{2}}
\newlabel{perspective}{{4}{2}}
\@writefile{toc}{\contentsline {subsection}{\numberline {1.5}Metoda RANSAC}{2}\protected@file@percent }
\newlabel{transform}{{5}{3}}
\@writefile{toc}{\contentsline {subsection}{\numberline {1.6}Heurystyki dla metody RANSAC}{3}\protected@file@percent }
\@writefile{toc}{\contentsline {subsubsection}{\numberline {1.6.1}Heurystyka modyfikacji rozk\IeC {\l }adu}{3}\protected@file@percent }
\@writefile{toc}{\contentsline {subsubsection}{\numberline {1.6.2}Heurystyka oszacowania liczby iteracji}{3}\protected@file@percent }
\newlabel{iterations-heur}{{6}{3}}
\@writefile{toc}{\contentsline {subsubsection}{\numberline {1.6.3}Heurystyka wyboru par z wykorzystaniem odleg\IeC {\l }o\IeC {\'s}ci}{4}\protected@file@percent }
\@writefile{toc}{\contentsline {section}{\numberline {2}Badania}{4}\protected@file@percent }
\@writefile{toc}{\contentsline {subsection}{\numberline {2.1}Algorytm analizy sp\IeC {\'o}jno\IeC {\'s}ci s\IeC {\k a}siedztwa}{4}\protected@file@percent }
\@writefile{toc}{\contentsline {subsubsection}{\numberline {2.1.1}Jako\IeC {\'s}\IeC {\'c} dzia\IeC {\l }ania}{4}\protected@file@percent }
\@writefile{lof}{\contentsline {figure}{\numberline {1}{\ignorespaces Por\IeC {\'o}wnanie wszystkich par z wyznaczonymi przez algorytm sp\IeC {\'o}jno\IeC {\'s}ci dla parametr\IeC {\'o}w $n = 75, c_r = 0.51$}}{5}\protected@file@percent }
\newlabel{book-all-vs-coherent}{{1}{5}}
\@writefile{toc}{\contentsline {subsubsection}{\numberline {2.1.2}Wp\IeC {\l }yw rozmiaru s\IeC {\k a}siedztwa}{5}\protected@file@percent }
\@writefile{toc}{\contentsline {subsubsection}{\numberline {2.1.3}Wp\IeC {\l }yw progu sp\IeC {\'o}jno\IeC {\'s}ci s\IeC {\k a}siedztwa}{5}\protected@file@percent }
\@writefile{lof}{\contentsline {figure}{\numberline {2}{\ignorespaces Badanie wp\IeC {\l }ywu rozmiaru s\IeC {\k a}siedztwa $n = 10, n = 25, n = 50, n = 75, n = 100, n = 200$}}{6}\protected@file@percent }
\newlabel{book-coherent-size-1}{{2}{6}}
\@writefile{lot}{\contentsline {table}{\numberline {1}{\ignorespaces Liczba znalezionych par ($k$) w zale\IeC {\.z}no\IeC {\'s}ci od progu sp\IeC {\'o}jno\IeC {\'s}ci s\IeC {\k a}siedztwa}}{6}\protected@file@percent }
\newlabel{book-coherence-ratio-tab}{{1}{6}}
\@writefile{toc}{\contentsline {subsubsection}{\numberline {2.1.4}Testy na kolejnym obrazie}{6}\protected@file@percent }
\@writefile{lof}{\contentsline {figure}{\numberline {3}{\ignorespaces Badanie wp\IeC {\l }ywu progu sp\IeC {\'o}jno\IeC {\'s}ci s\IeC {\k a}siedztwa $c_r = 30\%, c_r = 40\%, c_r = 50\%, c_r = 60\%, c_r = 70\%$}}{7}\protected@file@percent }
\newlabel{book-coherent-ratio}{{3}{7}}
\@writefile{lof}{\contentsline {figure}{\numberline {4}{\ignorespaces Badanie wp\IeC {\l }ywu rozmiaru s\IeC {\k a}siedztwa $n = 10, n = 20, n = 50, n = 75, n = 100, n = 200$}}{7}\protected@file@percent }
\newlabel{building-coherent-size}{{4}{7}}
\@writefile{lof}{\contentsline {figure}{\numberline {5}{\ignorespaces Badanie wp\IeC {\l }ywu progu sp\IeC {\'o}jno\IeC {\'s}ci s\IeC {\k a}siedztwa $c_r = 30\%, c_r = 40\%, c_r = 50\%, c_r = 60\%, c_r = 70\%$}}{8}\protected@file@percent }
\newlabel{building-coherent-ratio}{{5}{8}}
\@writefile{toc}{\contentsline {subsection}{\numberline {2.2}Dzia\IeC {\l }anie metody RANSAC}{8}\protected@file@percent }
\@writefile{lof}{\contentsline {figure}{\numberline {6}{\ignorespaces Zdj\IeC {\k e}cia z bada\IeC {\'n} nad sp\IeC {\'o}jno\IeC {\'s}ci\IeC {\k a} przekszta\IeC {\l }cone z u\IeC {\.z}yciem metody RANSAC}}{9}\protected@file@percent }
\newlabel{book-ransac}{{6}{9}}
\@writefile{toc}{\contentsline {subsection}{\numberline {2.3}Parametry metody RANSAC}{9}\protected@file@percent }
\@writefile{lof}{\contentsline {figure}{\numberline {7}{\ignorespaces Przyk\IeC {\l }ady dzia\IeC {\l }ania przekszta\IeC {\l }ce\IeC {\'n} afinicznych oraz perspektywicznych}}{10}\protected@file@percent }
\newlabel{ransac-summary-my}{{7}{10}}
\@writefile{toc}{\contentsline {subsubsection}{\numberline {2.3.1}Badania liczby iteracji}{10}\protected@file@percent }
\@writefile{lof}{\contentsline {figure}{\numberline {8}{\ignorespaces Wynik dzia\IeC {\l }ania metody RANSAC dla transformaty perspektywicznej w zale\IeC {\.z}no\IeC {\'s}ci od liczby iteracji}}{11}\protected@file@percent }
\newlabel{hala-ransac-iter}{{8}{11}}
\@writefile{lot}{\contentsline {table}{\numberline {2}{\ignorespaces \IeC {\'S}rednia ocena oraz czas ewaluacji dla r\IeC {\'o}\IeC {\.z}nej liczny iteracji algorytmu RANSAC}}{11}\protected@file@percent }
\newlabel{ransac-iter-tab}{{2}{11}}
\@writefile{lof}{\contentsline {figure}{\numberline {9}{\ignorespaces Para zdj\IeC {\k e}\IeC {\'c} na kt\IeC {\'o}rej przeprowadzono badania liczby iteracji dla metody RANSAC}}{12}\protected@file@percent }
\newlabel{ransac-iter-tab-source}{{9}{12}}
\@writefile{toc}{\contentsline {subsubsection}{\numberline {2.3.2}Badania parametru max\_error}{12}\protected@file@percent }
\@writefile{lof}{\contentsline {figure}{\numberline {10}{\ignorespaces Przekszta\IeC {\l }cenia afiniczne pary obraz\IeC {\'o}w testuj\IeC {\k a}ce warto\IeC {\'s}ci $max\_error \in \{ 1, 5, 10, 20, 35, 50\}$}}{13}\protected@file@percent }
\newlabel{ransac-error}{{10}{13}}
\@writefile{toc}{\contentsline {subsection}{\numberline {2.4}Heurytyki dla metody RANSAC}{13}\protected@file@percent }
\@writefile{toc}{\contentsline {section}{\numberline {3}Podsumowanie}{13}\protected@file@percent }
